{"page":1,
"limit":10,
"explicit":false,
"total":1000,
"has_more":true,
"list":[
    {"id":"x8malw0","title":"DEPORTES 05-07-2023","channel":"sport","owner":"x1sy405"},
    {"id":"x8mai25","title":"Ricky Rubio, Aldama, Garuba y los Hernang\u00f3mez protagonizan la prelista del Mundial","channel":"sport","owner":"xn5spz"},
    {"id":"x8magl3","title":"ANCELOTTI SELECIONADOR DE BRASIL EN 2024","channel":"sport","owner":"x1r7ch7"},
    {"id":"x8ma3hz","title":"Revista de prensa 05-07-2023","channel":"sport","owner":"xolku7"},{"id":"x8ma1zp","title":"I\u00f1igo Mart\u00ednez, presentado como nuevo fichaje del Bar\u00e7a","channel":"sport","owner":"x2lnuxj"},
    {"id":"x8ma0yr","title":"DIRECTO| III JORNADAS OKGREEN","channel":"sport","owner":"x24zbtw"},{"id":"x8m9w4q","title":"Laporta reconoce los pagos pendientes a Messi","channel":"sport","owner":"x2lnuxj"},
    {"id":"x8m9v5d","title":"\u23ef\ufe0f \u0634\u0627\u0647\u062f \u0627\u0644\u0631\u0643\u0644\u0627\u062a \u0627\u0644\u062a\u0631\u062c\u064a\u062d\u064a\u0629 \u0644\u0645\u0628\u0627\u0631\u0627\u0629 \u0627\u0644\u0645\u063a\u0631\u0628 \u0648\u0645\u0627\u0644\u064a","channel":"sport","owner":"x2tla5u"},
    {"id":"x8m9hdy","title":"DEPORTES 04-07-2023","channel":"sport","owner":"x1sy405"},
    {"id":"x8m9gfo","title":"El Camp Nou, en obras","channel":"sport","owner":"x2lnuxj"}
    ]
}